<svg id="Layer_1" data-name="Layer 1" xmlns="http://www.w3.org/2000/svg" viewBox="0 0 375 243">
  <defs>
    <style>
      .cls-1 {
        fill: #222;
        opacity: 0.75;
      }

      .cls-1, .cls-2, .cls-3 {
        isolation: isolate;
      }

      .cls-3 {
        font-size: 20px;
        font-family: Roboto-Medium, Roboto;
      }

      .cls-3, .cls-5 {
        fill: #ccc;
      }

      .cls-4 {
        letter-spacing: -0.01em;
      }

      .cls-6 {
        fill: none;
      }
    </style>
  </defs>
  <title>add_photo_header</title>
  <g id="Group_358" data-name="Group 358">
    <rect id="rectangle-49" class="cls-1" width="375" height="243"/>
    <g id="Welcome" class="cls-2">
      <text class="cls-3" transform="translate(140.56 183)">Add Pho<tspan class="cls-4" x="76.14" y="0">t</tspan><tspan x="82.5" y="0">o</tspan></text>
    </g>
    <g id="Group_244" data-name="Group 244">
      <g id="Group_243" data-name="Group 243">
        <path id="Path_364" data-name="Path 364" class="cls-5" d="M188,53.06,140.06,92.89v56h95.88v-56Zm-11.8,88.5v-42h23.6v42Zm52.36,0H205V97.31a3.17,3.17,0,0,0-3-3H173.25a3.17,3.17,0,0,0-3,3v44.25H146.7v-45L188,61.91l40.56,33.92Z"/>
        <circle id="Ellipse_32" data-name="Ellipse 32" class="cls-5" cx="193.16" cy="118.7" r="2.95"/>
      </g>
      <rect id="Rectangle_189" data-name="Rectangle 189" class="cls-6" x="129" y="42" width="118" height="118"/>
    </g>
  </g>
</svg>
