<svg id="Layer_1" data-name="Layer 1" xmlns="http://www.w3.org/2000/svg" viewBox="0 0 166 166">
  <defs>
    <style>
      .cls-1, .cls-4 {
        fill: #fff;
      }

      .cls-1 {
        opacity: 0.1;
        isolation: isolate;
      }

      .cls-2 {
        fill: #6698ab;
      }

      .cls-3 {
        fill: none;
      }
    </style>
  </defs>
  <title>CompleteSample</title>
  <g id="Group_366" data-name="Group 366">
    <circle id="ellipse-36" class="cls-1" cx="83" cy="83" r="83"/>
    <path id="path-192" class="cls-2" d="M8,83a75,75,0,1,1,75,75h0A75,75,0,0,1,8,83Z"/>
    <g id="Group_355" data-name="Group 355">
      <path id="Path_505" data-name="Path 505" class="cls-3" d="M42,39h87v87H42Z"/>
      <path id="Path_506" data-name="Path 506" class="cls-4" d="M77.89,84.13V80.87l3.81-2.72c.54-.54.54-.54.54-1.09L79,71.63c-.54,0-1.09-.54-1.63,0l-3.81,1.09-3.26-1.63-.55-3.81c0-.54,0-1.09-1.09-1.09h-6a1.17,1.17,0,0,0-1.09,1.09L61,71.08l-3.26,1.63L54,71.08c-.54,0-.54,0-1.09.54l-3.26,5.44c-.54.54,0,.54.54,1.09l3.26,2.72v3.26l-3.26,2.17a1.68,1.68,0,0,0-.54,1.09l3.26,5.44c.54.54.54,1.09,1.09.54l4.35-1.09A11.89,11.89,0,0,1,61,93.92l.54,4.35a1.9,1.9,0,0,0,1.09.54h6.52c.54,0,.54-.54,1.09-.54l.54-4.35a11.89,11.89,0,0,1,2.72-1.63l4.35,1.63c.54,0,.54,0,1.09-.54l3.26-5.44c.54-.54,0-.54-.54-1.09ZM65.93,89a6.28,6.28,0,0,1-6.52-6q0-.25,0-.5a6.28,6.28,0,0,1,6-6.52h.5c3.81,0,6,2.72,6,6.53S69.19,89,65.93,89Zm35.88-41.87H69.19c-3.26,0-6,2.72-6,6.52v9.79h5.44V55.31H102.9v54.37H68.64v-8.16H63.21v9.79a6.61,6.61,0,0,0,6.52,6.52h32.08a6.28,6.28,0,0,0,6.53-6q0-.25,0-.5V53.68C107.79,49.88,105.08,47.16,101.81,47.16Z"/>
    </g>
  </g>
</svg>
