<?xml version="1.0" encoding="utf-8"?>
<!-- Generator: Adobe Illustrator 21.0.2, SVG Export Plug-In . SVG Version: 6.00 Build 0)  -->
<svg version="1.1" id="Layer_1" xmlns="http://www.w3.org/2000/svg" xmlns:xlink="http://www.w3.org/1999/xlink" x="0px" y="0px"
	 viewBox="0 0 54 54" style="enable-background:new 0 0 54 54;" xml:space="preserve">
<style type="text/css">
	.st0{opacity:0.4;fill:none;stroke:#FFFFFF;stroke-width:2;enable-background:new    ;}
	.st1{opacity:0.4;}
	.st2{fill:none;}
	.st3{fill:#FFFFFF;}
</style>
<title>ConfigureSystem</title>
<g id="Group_358">
	<path id="path-192" class="st0" d="M1,27C1,12.6,12.6,1,27,1s26,11.6,26,26S41.4,53,27,53S1,41.4,1,27z"/>
	<g id="Group_352" class="st1">
		<path id="Path_499" class="st2" d="M14,14h26v26H14V14z"/>
		<path id="Path_500" class="st3" d="M24.7,27.5v-1l1.1-0.8c0.2-0.2,0.2-0.2,0.2-0.3l-1-1.6c-0.2,0-0.3-0.2-0.5,0l-1.1,0.3l-1-0.5
			l-0.2-1.1c0-0.2,0-0.3-0.3-0.3h-1.7c-0.2,0-0.3,0.1-0.3,0.3l-0.2,1.1l-1,0.5l-1.1-0.5c-0.2,0-0.2,0-0.3,0.2l-1,1.6
			c-0.2,0.2,0,0.2,0.2,0.3l1,0.8v1l-1,0.6c-0.1,0.1-0.1,0.2-0.2,0.3l1,1.6c0.2,0.2,0.2,0.3,0.3,0.2l1.3-0.3c0.3,0.1,0.6,0.3,0.8,0.5
			l0.2,1.3c0.1,0.1,0.2,0.1,0.3,0.2h2c0.2,0,0.2-0.2,0.3-0.2l0.2-1.3c0.2-0.2,0.5-0.4,0.8-0.5l1.3,0.5c0.2,0,0.2,0,0.3-0.2l1-1.6
			c0.2-0.2,0-0.2-0.2-0.3L24.7,27.5z M21.1,29c-1,0-1.9-0.8-2-1.8c0,0,0-0.1,0-0.1c-0.1-1,0.7-1.9,1.8-2c0,0,0,0,0,0h0.1
			c1,0,1.8,0.7,1.8,1.7c0,0.1,0,0.2,0,0.3C23,28,22.2,28.9,21.1,29C21.2,28.9,21.2,28.9,21.1,29L21.1,29z M31.9,16.4h-9.7
			c-1,0-1.8,0.9-1.8,1.9c0,0,0,0,0,0v3H22v-2.5h10.2v16.3H22v-2.4h-1.7v2.9c0,1.1,0.9,2,2,2h9.6c1,0.1,1.9-0.7,2-1.8c0,0,0,0,0,0
			c0,0,0-0.1,0-0.2V18.4C33.8,17.3,32.9,16.5,31.9,16.4z"/>
	</g>
</g>
</svg>
