<?xml version="1.0" encoding="utf-8"?>
<!-- Generator: Adobe Illustrator 21.0.2, SVG Export Plug-In . SVG Version: 6.00 Build 0)  -->
<svg version="1.1" id="Layer_1" xmlns="http://www.w3.org/2000/svg" xmlns:xlink="http://www.w3.org/1999/xlink" x="0px" y="0px"
	 viewBox="0 0 375.5 166" style="enable-background:new 0 0 375.5 166;" xml:space="preserve">
<style type="text/css">
	.st0{opacity:0.5;fill:none;stroke:#95989A;stroke-width:2;enable-background:new    ;}
	.st1{opacity:0;fill:none;stroke:#95989A;stroke-width:2;enable-background:new    ;}
	.st2{opacity:0.1;}
	.st3{fill:none;}
	.st4{fill:none;stroke:#FFFFFF;stroke-width:8;}
	.st5{opacity:0.3;}
	.st6{fill:#CCCCCC;}
</style>
<title>Add_Location_edit</title>
<g id="Group_357">
	<line id="line-23" class="st0" x1="271.5" y1="83.5" x2="375.5" y2="83.5"/>
	<line id="line-23-2" class="st1" x1="0" y1="83" x2="105" y2="83"/>
	<g id="ellipse-36" class="st2">
		<circle class="st3" cx="188" cy="83" r="83"/>
		<circle class="st4" cx="188" cy="83" r="79"/>
	</g>
	<g id="group-446" class="st5">
		<path id="path" class="st3" d="M142,37h92v92h-92V37z"/>
		<g id="group">
			<path id="path-2" class="st6" d="M176.5,76.1h-12.6V64h-5.8v12.1H146v5.8h12.1v12.7h5.8V81.8h12.6V76.1z"/>
		</g>
		<g id="group-2">
			<path id="path-3" class="st6" d="M199.5,83c8.5,0,15.5-6.9,15.5-15.4c0,0,0-0.1,0-0.1c0-8.6-6.9-15-15.5-15S184,59.4,184,67.5
				C184.2,76,191,82.8,199.5,83z M199.5,58.3c5.4,0,9.7,4.3,9.8,9.6c0,0,0,0,0,0c0,0.1,0,0.1,0,0.2c0,5.8-4.6,9.2-9.8,9.2
				c-5.4,0-9.7-4.3-9.8-9.6c0,0,0,0,0,0c0-0.1,0-0.1,0-0.2C189.7,61.7,194.3,58.3,199.5,58.3z"/>
			<path id="path-4" class="st6" d="M199.5,90.5c-10.4,0-30.5,5.2-30.5,15.5v7.5h5.8V106l0,0c0-4,13.8-9.8,24.7-9.8
				s24.7,5.2,24.7,9.8v1.7l0,0v5.8h5.8V106C230,95.7,209.9,90.5,199.5,90.5z"/>
		</g>
	</g>
</g>
</svg>
