<svg id="Layer_1" data-name="Layer 1" xmlns="http://www.w3.org/2000/svg" viewBox="0 0 150 150">
  <defs>
    <style>
      .cls-1 {
        fill: #fff;
        opacity: 0.25;
        isolation: isolate;
      }

      .cls-2 {
        fill: #ccc;
      }
    </style>
  </defs>
  <title>status-check-icon</title>
  <g id="Group_1" data-name="Group 1">
    <path id="path-192" class="cls-1" d="M0,75a75,75,0,1,1,75,75h0A75,75,0,0,1,0,75Z" transform="translate(0 0)"/>
    <path id="path-200" class="cls-2" d="M62.17,90,45.83,73.67,40,79.5l22.17,22.17L110,53.84,104.17,48Z" transform="translate(0 0)"/>
  </g>
</svg>
