<?xml version="1.0" encoding="utf-8"?>
<!-- Generator: Adobe Illustrator 21.0.2, SVG Export Plug-In . SVG Version: 6.00 Build 0)  -->
<svg version="1.1" id="Layer_1" xmlns="http://www.w3.org/2000/svg" xmlns:xlink="http://www.w3.org/1999/xlink" x="0px" y="0px"
	 viewBox="0 0 150 150" style="enable-background:new 0 0 150 150;" xml:space="preserve">
<style type="text/css">
	.st0{fill:#CCCCCC;}
</style>
<title>status-check-icon</title>
<g id="Group_1">
	<path id="path-200" class="st0" d="M62.2,90L45.8,73.7L40,79.5l22.2,22.2L110,53.8l-5.8-5.8L62.2,90z"/>
</g>
</svg>
