[
  {
    "sensorType": "door",
    "url": "https://youtube.com/nsc/myvideo.mp4"
  },
  {
    "sensorType": "window",
    "url": "https://youtube.com/nsc/myvideo.mp4"
  },
  {
    "sensorType": "smoke",
    "url": "https://youtube.com/nsc/myvideo.mp4"
  },
  {
    "sensorType": "co",
    "url": "https://youtube.com/nsc/myvideo.mp4"
  },
  {
    "sensorType": "motion",
    "url": "https://youtube.com/nsc/myvideo.mp4"
  },
  {
    "sensorType": "glassbreak",
    "url": "https://youtube.com/nsc/myvideo.mp4"
  }
]